machinename,os,type
linux1,linux,server
linux2,linux,server
linux3,linux,server
linux4,linux,server
windows1,windows,server
windows2,windows,server
windows3,windows,server
laptop1,windows,workstation
laptop2,windows,workstation
desktop1,windows,workstation
desktop2,windows,workstation
desktop3,windows,workstation
windows4,windows,server
windows5,windows,server
linux5,linux,server
Mercury,linux,server
Venus,linux,server
Earth,linux,server
Mars,windows,server
Jupiter,windows,server
Saturn,windows,server
Uranus,windows,server
Neptune,windows,server
Ceres,windows,workstation
Pluto,windows,workstation
Haumea,windows,workstation
Makemake,windows,workstation
Eris,windows,workstation
Orcus,windows,workstation
Salacia,windows,workstation
Quaoar,windows,workstation
Gonggong,windows,workstation
Sedna,windows,workstation
Moon,windows,workstation
Io,windows,workstation
Europa,windows,workstation
Ganymede,windows,workstation
Callisto,windows,workstation
Mimas,windows,workstation
Enceladus,windows,workstation
Tethys,windows,workstation
Dione,windows,workstation
Rhea,windows,workstation
Titan,windows,workstation
Iapetus,windows,workstation
Miranda,windows,workstation
Ariel,windows,workstation
Umbriel,windows,workstation
Titania,windows,workstation
Oberon,windows,workstation
Triton,windows,workstation
Charon,windows,workstation
Sun,windows,workstation
Sirius,windows,workstation
Canopus,windows,workstation
Rigil,windows,workstation
Arcturus,windows,workstation
Vega,windows,workstation
Capella,windows,workstation
Rigel,windows,workstation
Procyon,windows,workstation
Achernar,windows,workstation
Betelgeuse,windows,workstation
Hadar,windows,workstation
Altair,windows,workstation
Acrux,windows,workstation
Aldebaran,windows,workstation
Antares,windows,workstation
Spica,windows,workstation
Pollux,windows,workstation
Fomalhaut,windows,workstation
Deneb,windows,workstation
Mimosa,windows,workstation
Regulus,windows,workstation
Adhara,windows,workstation
Shaula,windows,workstation
Castor,windows,workstation
Gacrux,windows,workstation
Bellatrix,windows,workstation
Elnath,windows,workstation
Miaplacidus,windows,workstation
Alnilam,windows,workstation
Regor,windows,workstation
Alnair,windows,workstation
Alioth,windows,workstation
Alnitak,windows,workstation
Dubhe,windows,workstation
Mirfak,windows,workstation
Wezen,windows,workstation
Sargas,windows,workstation
Kaus,windows,workstation
Avior,windows,workstation
Alkaid,windows,workstation
Menkalinan,windows,workstation
Atria,windows,workstation
Alhena,windows,workstation
Peacock,windows,workstation
Alsephina,windows,workstation
Mirzam,windows,workstation
Alphard,windows,workstation
Polaris,windows,workstation
Hamal,windows,workstation
Algieba,windows,workstation
Diphda,windows,workstation
Mizar,windows,workstation
Nunki,windows,workstation
Menkent,windows,workstation
Mirach,windows,workstation
Alpheratz,windows,workstation
Rasalhague,windows,workstation
Kochab,windows,workstation
Saiph,windows,workstation
Denebola,windows,workstation
Algol,windows,workstation
Tiaki,windows,workstation
Muhlifain,windows,workstation
Aspidiske,windows,workstation
Suhail,windows,workstation
Alphecca,windows,workstation
Mintaka,windows,workstation
Sadr,windows,workstation
Eltanin,windows,workstation
Schedar,windows,workstation
Naos,windows,workstation
Almach,windows,workstation
Caph,windows,workstation
Izar,windows,workstation
Dschubba,windows,workstation
Larawag,windows,workstation
Merak,windows,workstation
Ankaa,windows,workstation
Girtab,windows,workstation
Enif,windows,workstation
Scheat,windows,workstation
Sabik,windows,workstation
Phecda,windows,workstation
Aludra,windows,workstation
Markeb,windows,workstation
Navi,windows,workstation
Markab,windows,workstation
Aljanah,windows,workstation
Acrab,windows,workstation
